{
  "response": {
    "status": "ok",
    "userTier": "developer",
    "total": 2449750,
    "startIndex": 21,
    "pageSize": 10,
    "currentPage": 3,
    "pages": 244975,
    "orderBy": "newest",
    "static_path": "",
    "source": "The Guardian",
    "source_url": "https://www.theguardian.com",
    "results": [
      {
        "id": "commentisfree/2023/sep/08/vitality-diverse-britain-music-ezra-collective-deserve-mercury-prize",
        "type": "article",
        "sectionId": "commentisfree",
        "sectionName": "Opinion",
        "webPublicationDate": "2023-09-08T12:33:13Z",
        "webTitle": "Take the vitality of diverse Britain, set it to music. That’s why Ezra Collective deserve their Mercury prize | Hugh Muir",
        "webUrl": "https://www.theguardian.com/commentisfree/2023/sep/08/vitality-diverse-britain-music-ezra-collective-deserve-mercury-prize",
        "apiUrl": "https://content.guardianapis.com/commentisfree/2023/sep/08/vitality-diverse-britain-music-ezra-collective-deserve-mercury-prize",
        "isHosted": false,
        "pillarId": "pillar/opinion",
        "pillarName": "Opinion"
      },
      {
        "id": "world/2023/sep/08/china-iphone-ban-government-state-owned-firms-workers-apple-us",
        "type": "article",
        "sectionId": "world",
        "sectionName": "World news",
        "webPublicationDate": "2023-09-08T12:32:42Z",
        "webTitle": "China reportedly extends iPhone ban to more workers as tensions with US rise",
        "webUrl": "https://www.theguardian.com/world/2023/sep/08/china-iphone-ban-government-state-owned-firms-workers-apple-us",
        "apiUrl": "https://content.guardianapis.com/world/2023/sep/08/china-iphone-ban-government-state-owned-firms-workers-apple-us",
        "isHosted": false,
        "pillarId": "pillar/news",
        "pillarName": "News"
      },
      {
        "id": "uk-news/2023/sep/08/iopc-apologises-marcia-rigg-black-man-sean-rigg-died-police-custody",
        "type": "article",
        "sectionId": "uk-news",
        "sectionName": "UK news",
        "webPublicationDate": "2023-09-08T12:32:38Z",
        "webTitle": "Police watchdog apologises to sister of black man who died in custody in 2008",
        "webUrl": "https://www.theguardian.com/uk-news/2023/sep/08/iopc-apologises-marcia-rigg-black-man-sean-rigg-died-police-custody",
        "apiUrl": "https://content.guardianapis.com/uk-news/2023/sep/08/iopc-apologises-marcia-rigg-black-man-sean-rigg-died-police-custody",
        "isHosted": false,
        "pillarId": "pillar/news",
        "pillarName": "News"
      },
      {
        "id": "business/2023/sep/08/getir-value-drops-to-25bn-as-shoppers-move-away-from-convenience",
        "type": "article",
        "sectionId": "business",
        "sectionName": "Business",
        "webPublicationDate": "2023-09-08T12:31:43Z",
        "webTitle": "Getir value ‘drops to $2.5bn’ as shoppers move away from convenience",
        "webUrl": "https://www.theguardian.com/business/2023/sep/08/getir-value-drops-to-25bn-as-shoppers-move-away-from-convenience",
        "apiUrl": "https://content.guardianapis.com/business/2023/sep/08/getir-value-drops-to-25bn-as-shoppers-move-away-from-convenience",
        "isHosted": false,
        "pillarId": "pillar/news",
        "pillarName": "News"
      },
      {
        "id": "business/nils-pratley-on-finance/2023/sep/08/does-the-uk-government-still-have-an-offshore-wind-strategy",
        "type": "article",
        "sectionId": "business",
        "sectionName": "Business",
        "webPublicationDate": "2023-09-08T12:12:52Z",
        "webTitle": "Does the UK government still have an offshore wind strategy? | Nils Pratley",
        "webUrl": "https://www.theguardian.com/business/nils-pratley-on-finance/2023/sep/08/does-the-uk-government-still-have-an-offshore-wind-strategy",
        "apiUrl": "https://content.guardianapis.com/business/nils-pratley-on-finance/2023/sep/08/does-the-uk-government-still-have-an-offshore-wind-strategy",
        "isHosted": false,
        "pillarId": "pillar/news",
        "pillarName": "News"
      },
      {
        "id": "stage/2023/sep/08/god-of-carnage-review-lyric-hammersmith-london",
        "type": "article",
        "sectionId": "stage",
        "sectionName": "Stage",
        "webPublicationDate": "2023-09-08T12:03:23Z",
        "webTitle": "God of Carnage review – deliciously savage satire still has plenty of bite",
        "webUrl": "https://www.theguardian.com/stage/2023/sep/08/god-of-carnage-review-lyric-hammersmith-london",
        "apiUrl": "https://content.guardianapis.com/stage/2023/sep/08/god-of-carnage-review-lyric-hammersmith-london",
        "isHosted": false,
        "pillarId": "pillar/arts",
        "pillarName": "Arts"
      },
      {
        "id": "politics/2023/sep/08/uk-decides-not-to-call-for-release-of-briton-held-in-india-on-terror-charges-jagtar-singh-johal",
        "type": "article",
        "sectionId": "politics",
        "sectionName": "Politics",
        "webPublicationDate": "2023-09-08T12:03:06Z",
        "webTitle": "UK decides not to call for release of Briton held in India on terror charges",
        "webUrl": "https://www.theguardian.com/politics/2023/sep/08/uk-decides-not-to-call-for-release-of-briton-held-in-india-on-terror-charges-jagtar-singh-johal",
        "apiUrl": "https://content.guardianapis.com/politics/2023/sep/08/uk-decides-not-to-call-for-release-of-briton-held-in-india-on-terror-charges-jagtar-singh-johal",
        "isHosted": false,
        "pillarId": "pillar/news",
        "pillarName": "News"
      },
      {
        "id": "artanddesign/2023/sep/08/colour-revolution-victorian-textiles-ashmolean-oxford",
        "type": "article",
        "sectionId": "artanddesign",
        "sectionName": "Art and design",
        "webPublicationDate": "2023-09-08T12:00:38Z",
        "webTitle": "To dye for: why Victorian Britain was more colourful than we think",
        "webUrl": "https://www.theguardian.com/artanddesign/2023/sep/08/colour-revolution-victorian-textiles-ashmolean-oxford",
        "apiUrl": "https://content.guardianapis.com/artanddesign/2023/sep/08/colour-revolution-victorian-textiles-ashmolean-oxford",
        "isHosted": false,
        "pillarId": "pillar/arts",
        "pillarName": "Arts"
      },
      {
        "id": "commentisfree/2023/sep/08/britain-millennials-work-wage-stagnation-gig-economy",
        "type": "article",
        "sectionId": "commentisfree",
        "sectionName": "Opinion",
        "webPublicationDate": "2023-09-08T12:00:37Z",
        "webTitle": "Of course Britain’s millennials have lost faith in work. Make it fairer and that might change  | James Greig",
        "webUrl": "https://www.theguardian.com/commentisfree/2023/sep/08/britain-millennials-work-wage-stagnation-gig-economy",
        "apiUrl": "https://content.guardianapis.com/commentisfree/2023/sep/08/britain-millennials-work-wage-stagnation-gig-economy",
        "isHosted": false,
        "pillarId": "pillar/opinion",
        "pillarName": "Opinion"
      },
      {
        "id": "sport/2023/sep/08/rugby-world-cup-2023-what-to-look-out-for-on-the-opening-weekend",
        "type": "article",
        "sectionId": "sport",
        "sectionName": "Sport",
        "webPublicationDate": "2023-09-08T11:58:22Z",
        "webTitle": "Rugby World Cup 2023: what to look out for on the opening weekend",
        "webUrl": "https://www.theguardian.com/sport/2023/sep/08/rugby-world-cup-2023-what-to-look-out-for-on-the-opening-weekend",
        "apiUrl": "https://content.guardianapis.com/sport/2023/sep/08/rugby-world-cup-2023-what-to-look-out-for-on-the-opening-weekend",
        "isHosted": false,
        "pillarId": "pillar/sport",
        "pillarName": "Sport"
      }
    ]
  }
}