{
  "response": {
    "status": "ok",
    "userTier": "developer",
    "total": 2449750,
    "startIndex": 61,
    "pageSize": 10,
    "currentPage": 7,
    "pages": 244975,
    "orderBy": "newest",
    "static_path": "",
    "source": "The Guardian",
    "source_url": "https://www.theguardian.com",
    "results": [
      {
        "id": "us-news/2023/sep/08/us-affordable-housing-corporations-amazon-low-interest-rates",
        "type": "article",
        "sectionId": "us-news",
        "sectionName": "US news",
        "webPublicationDate": "2023-09-08T10:00:36Z",
        "webTitle": " Has corporate investment in US affordable housing made a difference?",
        "webUrl": "https://www.theguardian.com/us-news/2023/sep/08/us-affordable-housing-corporations-amazon-low-interest-rates",
        "apiUrl": "https://content.guardianapis.com/us-news/2023/sep/08/us-affordable-housing-corporations-amazon-low-interest-rates",
        "isHosted": false,
        "pillarId": "pillar/news",
        "pillarName": "News"
      },
      {
        "id": "lifeandstyle/2023/sep/08/im-proud-of-my-wildlife-friendly-patch-but-i-really-dont-dig-this-mole",
        "type": "article",
        "sectionId": "lifeandstyle",
        "sectionName": "Life and style",
        "webPublicationDate": "2023-09-08T10:00:36Z",
        "webTitle": "I’m proud of my wildlife-friendly patch, but I really don’t dig this mole",
        "webUrl": "https://www.theguardian.com/lifeandstyle/2023/sep/08/im-proud-of-my-wildlife-friendly-patch-but-i-really-dont-dig-this-mole",
        "apiUrl": "https://content.guardianapis.com/lifeandstyle/2023/sep/08/im-proud-of-my-wildlife-friendly-patch-but-i-really-dont-dig-this-mole",
        "isHosted": false,
        "pillarId": "pillar/lifestyle",
        "pillarName": "Lifestyle"
      },
      {
        "id": "world/2023/sep/08/twitter-saudi-arabia-human-rights-abuses",
        "type": "article",
        "sectionId": "world",
        "sectionName": "World news",
        "webPublicationDate": "2023-09-08T10:00:35Z",
        "webTitle": "Twitter ‘unfit’ for banking over alleged complicity in Saudi rights abuses",
        "webUrl": "https://www.theguardian.com/world/2023/sep/08/twitter-saudi-arabia-human-rights-abuses",
        "apiUrl": "https://content.guardianapis.com/world/2023/sep/08/twitter-saudi-arabia-human-rights-abuses",
        "isHosted": false,
        "pillarId": "pillar/news",
        "pillarName": "News"
      },
      {
        "id": "us-news/2023/sep/08/us-school-bus-driver-strike-union-new-york",
        "type": "article",
        "sectionId": "us-news",
        "sectionName": "US news",
        "webPublicationDate": "2023-09-08T10:00:35Z",
        "webTitle": "US school bus drivers strike amid low pay and staff shortages",
        "webUrl": "https://www.theguardian.com/us-news/2023/sep/08/us-school-bus-driver-strike-union-new-york",
        "apiUrl": "https://content.guardianapis.com/us-news/2023/sep/08/us-school-bus-driver-strike-union-new-york",
        "isHosted": false,
        "pillarId": "pillar/news",
        "pillarName": "News"
      },
      {
        "id": "travel/2023/sep/08/readers-on-the-joy-of-solo-travel",
        "type": "article",
        "sectionId": "travel",
        "sectionName": "Travel",
        "webPublicationDate": "2023-09-08T10:00:35Z",
        "webTitle": "‘Choose something you love, and go and do it’: readers on the joy of solo travel ",
        "webUrl": "https://www.theguardian.com/travel/2023/sep/08/readers-on-the-joy-of-solo-travel",
        "apiUrl": "https://content.guardianapis.com/travel/2023/sep/08/readers-on-the-joy-of-solo-travel",
        "isHosted": false,
        "pillarId": "pillar/lifestyle",
        "pillarName": "Lifestyle"
      },
      {
        "id": "uk-news/2023/sep/08/heathrow-will-have-to-cut-passenger-charges-in-2024",
        "type": "article",
        "sectionId": "uk-news",
        "sectionName": "UK news",
        "webPublicationDate": "2023-09-08T09:57:50Z",
        "webTitle": "Heathrow will have to cut passenger charges by about 20% in 2024",
        "webUrl": "https://www.theguardian.com/uk-news/2023/sep/08/heathrow-will-have-to-cut-passenger-charges-in-2024",
        "apiUrl": "https://content.guardianapis.com/uk-news/2023/sep/08/heathrow-will-have-to-cut-passenger-charges-in-2024",
        "isHosted": false,
        "pillarId": "pillar/news",
        "pillarName": "News"
      },
      {
        "id": "artanddesign/2023/sep/08/the-week-in-art",
        "type": "article",
        "sectionId": "artanddesign",
        "sectionName": "Art and design",
        "webPublicationDate": "2023-09-08T09:35:09Z",
        "webTitle": "African identities, surreal genius Ken Dodd and doors, doors, doors – the week in art",
        "webUrl": "https://www.theguardian.com/artanddesign/2023/sep/08/the-week-in-art",
        "apiUrl": "https://content.guardianapis.com/artanddesign/2023/sep/08/the-week-in-art",
        "isHosted": false,
        "pillarId": "pillar/arts",
        "pillarName": "Arts"
      },
      {
        "id": "books/2023/sep/08/preti-taneja-my-mother-dedicated-her-book-to-me-and-it-made-me-want-to-be-a-writer",
        "type": "article",
        "sectionId": "books",
        "sectionName": "Books",
        "webPublicationDate": "2023-09-08T09:00:34Z",
        "webTitle": "Preti Taneja: ‘My mother dedicated her book to me and it made me want to be a writer’",
        "webUrl": "https://www.theguardian.com/books/2023/sep/08/preti-taneja-my-mother-dedicated-her-book-to-me-and-it-made-me-want-to-be-a-writer",
        "apiUrl": "https://content.guardianapis.com/books/2023/sep/08/preti-taneja-my-mother-dedicated-her-book-to-me-and-it-made-me-want-to-be-a-writer",
        "isHosted": false,
        "pillarId": "pillar/arts",
        "pillarName": "Arts"
      },
      {
        "id": "politics/2023/sep/08/uk-india-trade-deal-not-guaranteed-says-sunak-before-modi-meeting",
        "type": "article",
        "sectionId": "politics",
        "sectionName": "Politics",
        "webPublicationDate": "2023-09-08T09:00:34Z",
        "webTitle": "UK-India trade deal ‘not guaranteed’, says Sunak before Modi meeting",
        "webUrl": "https://www.theguardian.com/politics/2023/sep/08/uk-india-trade-deal-not-guaranteed-says-sunak-before-modi-meeting",
        "apiUrl": "https://content.guardianapis.com/politics/2023/sep/08/uk-india-trade-deal-not-guaranteed-says-sunak-before-modi-meeting",
        "isHosted": false,
        "pillarId": "pillar/news",
        "pillarName": "News"
      },
      {
        "id": "lifeandstyle/2023/sep/08/experience-i-suddenly-lost-my-hearing",
        "type": "article",
        "sectionId": "lifeandstyle",
        "sectionName": "Life and style",
        "webPublicationDate": "2023-09-08T09:00:33Z",
        "webTitle": "Experience: I suddenly lost my hearing",
        "webUrl": "https://www.theguardian.com/lifeandstyle/2023/sep/08/experience-i-suddenly-lost-my-hearing",
        "apiUrl": "https://content.guardianapis.com/lifeandstyle/2023/sep/08/experience-i-suddenly-lost-my-hearing",
        "isHosted": false,
        "pillarId": "pillar/lifestyle",
        "pillarName": "Lifestyle"
      }
    ]
  }
}