{
  "response": {
    "status": "ok",
    "userTier": "developer",
    "total": 2449750,
    "startIndex": 91,
    "pageSize": 10,
    "currentPage": 10,
    "pages": 244975,
    "orderBy": "newest",
    "static_path": "",
    "source": "The Guardian",
    "source_url": "https://www.theguardian.com",
    "results": [
      {
        "id": "books/2023/sep/08/the-secret-hours-by-mick-herron-review-secrets-and-spies",
        "type": "article",
        "sectionId": "books",
        "sectionName": "Books",
        "webPublicationDate": "2023-09-08T06:30:48Z",
        "webTitle": "The Secret Hours by Mick Herron review – secrets and spies",
        "webUrl": "https://www.theguardian.com/books/2023/sep/08/the-secret-hours-by-mick-herron-review-secrets-and-spies",
        "apiUrl": "https://content.guardianapis.com/books/2023/sep/08/the-secret-hours-by-mick-herron-review-secrets-and-spies",
        "isHosted": false,
        "pillarId": "pillar/arts",
        "pillarName": "Arts"
      },
      {
        "id": "environment/2023/sep/08/biggest-clean-energy-disaster-in-years-uk-auction-secures-no-offshore-windfarms",
        "type": "article",
        "sectionId": "environment",
        "sectionName": "Environment",
        "webPublicationDate": "2023-09-08T06:15:07Z",
        "webTitle": "‘Biggest clean energy disaster in years’: UK auction secures no offshore windfarms",
        "webUrl": "https://www.theguardian.com/environment/2023/sep/08/biggest-clean-energy-disaster-in-years-uk-auction-secures-no-offshore-windfarms",
        "apiUrl": "https://content.guardianapis.com/environment/2023/sep/08/biggest-clean-energy-disaster-in-years-uk-auction-secures-no-offshore-windfarms",
        "isHosted": false,
        "pillarId": "pillar/news",
        "pillarName": "News"
      },
      {
        "id": "society/2023/sep/08/jenni-hermoso-rubiales-kiss-spain-sexism-stories",
        "type": "article",
        "sectionId": "society",
        "sectionName": "Society",
        "webPublicationDate": "2023-09-08T06:12:52Z",
        "webTitle": "‘We all identify with Jenni’: Spanish women share their shocking stories of sexism",
        "webUrl": "https://www.theguardian.com/society/2023/sep/08/jenni-hermoso-rubiales-kiss-spain-sexism-stories",
        "apiUrl": "https://content.guardianapis.com/society/2023/sep/08/jenni-hermoso-rubiales-kiss-spain-sexism-stories",
        "isHosted": false,
        "pillarId": "pillar/news",
        "pillarName": "News"
      },
      {
        "id": "sport/2023/sep/08/us-open-2023-results-semi-final-coco-gauff-vs-karolina-muchova",
        "type": "article",
        "sectionId": "sport",
        "sectionName": "Sport",
        "webPublicationDate": "2023-09-08T06:06:46Z",
        "webTitle": "Coco Gauff’s toil pays off as American sets up US Open final against Aryna Sabalenka",
        "webUrl": "https://www.theguardian.com/sport/2023/sep/08/us-open-2023-results-semi-final-coco-gauff-vs-karolina-muchova",
        "apiUrl": "https://content.guardianapis.com/sport/2023/sep/08/us-open-2023-results-semi-final-coco-gauff-vs-karolina-muchova",
        "isHosted": false,
        "pillarId": "pillar/sport",
        "pillarName": "Sport"
      },
      {
        "id": "world/2023/sep/08/goal-destruction-ukraine-ex-defence-minister-warns-west-putin-aim",
        "type": "article",
        "sectionId": "world",
        "sectionName": "World news",
        "webPublicationDate": "2023-09-08T06:00:49Z",
        "webTitle": "‘Goal is destruction of Ukraine’: ex-defence minister warns west of Putin’s aim",
        "webUrl": "https://www.theguardian.com/world/2023/sep/08/goal-destruction-ukraine-ex-defence-minister-warns-west-putin-aim",
        "apiUrl": "https://content.guardianapis.com/world/2023/sep/08/goal-destruction-ukraine-ex-defence-minister-warns-west-putin-aim",
        "isHosted": false,
        "pillarId": "pillar/news",
        "pillarName": "News"
      },
      {
        "id": "tv-and-radio/2023/sep/08/the-morning-show-to-welcome-to-wrexham-the-seven-best-shows-to-stream-this-week",
        "type": "article",
        "sectionId": "tv-and-radio",
        "sectionName": "Television & radio",
        "webPublicationDate": "2023-09-08T06:00:49Z",
        "webTitle": "The Morning Show to Welcome to Wrexham: the seven best shows to stream this week",
        "webUrl": "https://www.theguardian.com/tv-and-radio/2023/sep/08/the-morning-show-to-welcome-to-wrexham-the-seven-best-shows-to-stream-this-week",
        "apiUrl": "https://content.guardianapis.com/tv-and-radio/2023/sep/08/the-morning-show-to-welcome-to-wrexham-the-seven-best-shows-to-stream-this-week",
        "isHosted": false,
        "pillarId": "pillar/arts",
        "pillarName": "Arts"
      },
      {
        "id": "business/2023/sep/08/aldi-is-becoming-money-conscious-shoppers-first-stop-shop-claims-ceo",
        "type": "article",
        "sectionId": "business",
        "sectionName": "Business",
        "webPublicationDate": "2023-09-08T06:00:49Z",
        "webTitle": "Aldi claims it is increasingly shoppers’ main supermarket for weekly shop",
        "webUrl": "https://www.theguardian.com/business/2023/sep/08/aldi-is-becoming-money-conscious-shoppers-first-stop-shop-claims-ceo",
        "apiUrl": "https://content.guardianapis.com/business/2023/sep/08/aldi-is-becoming-money-conscious-shoppers-first-stop-shop-claims-ceo",
        "isHosted": false,
        "pillarId": "pillar/news",
        "pillarName": "News"
      },
      {
        "id": "lifeandstyle/2023/sep/08/they-have-you-over-a-barrel-the-uk-pet-owners-facing-staggering-vet-bills",
        "type": "article",
        "sectionId": "lifeandstyle",
        "sectionName": "Life and style",
        "webPublicationDate": "2023-09-08T06:00:49Z",
        "webTitle": "‘They have you over a barrel’: the UK pet owners facing staggering vet bills",
        "webUrl": "https://www.theguardian.com/lifeandstyle/2023/sep/08/they-have-you-over-a-barrel-the-uk-pet-owners-facing-staggering-vet-bills",
        "apiUrl": "https://content.guardianapis.com/lifeandstyle/2023/sep/08/they-have-you-over-a-barrel-the-uk-pet-owners-facing-staggering-vet-bills",
        "isHosted": false,
        "pillarId": "pillar/lifestyle",
        "pillarName": "Lifestyle"
      },
      {
        "id": "technology/2023/sep/08/fairphone-5-review-could-this-be-the-first-phone-to-last-10-years",
        "type": "article",
        "sectionId": "technology",
        "sectionName": "Technology",
        "webPublicationDate": "2023-09-08T06:00:48Z",
        "webTitle": "Fairphone 5 review: could this be the first phone to last 10 years?",
        "webUrl": "https://www.theguardian.com/technology/2023/sep/08/fairphone-5-review-could-this-be-the-first-phone-to-last-10-years",
        "apiUrl": "https://content.guardianapis.com/technology/2023/sep/08/fairphone-5-review-could-this-be-the-first-phone-to-last-10-years",
        "isHosted": false,
        "pillarId": "pillar/news",
        "pillarName": "News"
      },
      {
        "id": "music/2023/sep/08/olivia-rodrigo-guts-review",
        "type": "article",
        "sectionId": "music",
        "sectionName": "Music",
        "webPublicationDate": "2023-09-08T06:00:48Z",
        "webTitle": "Olivia Rodrigo: Guts review | Alexis Petridis’s album of the week",
        "webUrl": "https://www.theguardian.com/music/2023/sep/08/olivia-rodrigo-guts-review",
        "apiUrl": "https://content.guardianapis.com/music/2023/sep/08/olivia-rodrigo-guts-review",
        "isHosted": false,
        "pillarId": "pillar/arts",
        "pillarName": "Arts"
      }
    ]
  }
}