{
  "response": {
    "status": "ok",
    "userTier": "developer",
    "total": 2449749,
    "startIndex": 1,
    "pageSize": 10,
    "currentPage": 1,
    "pages": 244975,
    "orderBy": "newest",
    "static_path": "",
    "source": "The Guardian",
    "source_url": "https://www.theguardian.com",
    "results": [
      {
        "id": "sport/live/2023/sep/08/england-v-new-zealand-first-mens-one-day-international-live",
        "type": "liveblog",
        "sectionId": "sport",
        "sectionName": "Sport",
        "webPublicationDate": "2023-09-08T15:02:16Z",
        "webTitle": "England v New Zealand: first men’s one-day international – live",
        "webUrl": "https://www.theguardian.com/sport/live/2023/sep/08/england-v-new-zealand-first-mens-one-day-international-live",
        "apiUrl": "https://content.guardianapis.com/sport/live/2023/sep/08/england-v-new-zealand-first-mens-one-day-international-live",
        "isHosted": false,
        "pillarId": "pillar/sport",
        "pillarName": "Sport"
      },
      {
        "id": "sport/blog/2023/sep/08/rugby-world-cup-2023-australia-pool-c-preview-matchups",
        "type": "article",
        "sectionId": "sport",
        "sectionName": "Sport",
        "webPublicationDate": "2023-09-08T15:00:42Z",
        "webTitle": "Arch underdogs Australia enter Rugby World Cup with Eddie Jones under scrutiny | Angus Fontaine",
        "webUrl": "https://www.theguardian.com/sport/blog/2023/sep/08/rugby-world-cup-2023-australia-pool-c-preview-matchups",
        "apiUrl": "https://content.guardianapis.com/sport/blog/2023/sep/08/rugby-world-cup-2023-australia-pool-c-preview-matchups",
        "isHosted": false,
        "pillarId": "pillar/sport",
        "pillarName": "Sport"
      },
      {
        "id": "us-news/live/2023/sep/08/georgia-report-indictment-trump-expected-unsealed-biden-modi-g20-latest-news",
        "type": "liveblog",
        "sectionId": "us-news",
        "sectionName": "US news",
        "webPublicationDate": "2023-09-08T14:55:38Z",
        "webTitle": "Georgia special grand jury recommended charges against Lindsey Graham and former senators – live",
        "webUrl": "https://www.theguardian.com/us-news/live/2023/sep/08/georgia-report-indictment-trump-expected-unsealed-biden-modi-g20-latest-news",
        "apiUrl": "https://content.guardianapis.com/us-news/live/2023/sep/08/georgia-report-indictment-trump-expected-unsealed-biden-modi-g20-latest-news",
        "isHosted": false,
        "pillarId": "pillar/news",
        "pillarName": "News"
      },
      {
        "id": "business/live/2023/sep/08/uk-renewable-auction-contracts-offshore-wind-energy-stock-market-business-live",
        "type": "liveblog",
        "sectionId": "business",
        "sectionName": "Business",
        "webPublicationDate": "2023-09-08T14:51:04Z",
        "webTitle": "UK interest rates now expected to peak at 5.5%; offshore wind power auction flops – business live",
        "webUrl": "https://www.theguardian.com/business/live/2023/sep/08/uk-renewable-auction-contracts-offshore-wind-energy-stock-market-business-live",
        "apiUrl": "https://content.guardianapis.com/business/live/2023/sep/08/uk-renewable-auction-contracts-offshore-wind-energy-stock-market-business-live",
        "isHosted": false,
        "pillarId": "pillar/news",
        "pillarName": "News"
      },
      {
        "id": "world/live/2023/sep/08/russia-ukraine-war-live-updates-blinken-sham-elections-ukraine-donetsk-luhansk-kerson-zaporizhzhia",
        "type": "liveblog",
        "sectionId": "world",
        "sectionName": "World news",
        "webPublicationDate": "2023-09-08T14:43:51Z",
        "webTitle": "Russia-Ukraine war live: tanks donated by Denmark, Germany and Netherlands arrive in Ukraine",
        "webUrl": "https://www.theguardian.com/world/live/2023/sep/08/russia-ukraine-war-live-updates-blinken-sham-elections-ukraine-donetsk-luhansk-kerson-zaporizhzhia",
        "apiUrl": "https://content.guardianapis.com/world/live/2023/sep/08/russia-ukraine-war-live-updates-blinken-sham-elections-ukraine-donetsk-luhansk-kerson-zaporizhzhia",
        "isHosted": false,
        "pillarId": "pillar/news",
        "pillarName": "News"
      },
      {
        "id": "business/2023/sep/08/costa-coffee-recalls-food-items-over-possible-choking-hazard",
        "type": "article",
        "sectionId": "business",
        "sectionName": "Business",
        "webPublicationDate": "2023-09-08T14:29:25Z",
        "webTitle": "Costa Coffee recalls sandwiches and wraps amid fears they contain stones",
        "webUrl": "https://www.theguardian.com/business/2023/sep/08/costa-coffee-recalls-food-items-over-possible-choking-hazard",
        "apiUrl": "https://content.guardianapis.com/business/2023/sep/08/costa-coffee-recalls-food-items-over-possible-choking-hazard",
        "isHosted": false,
        "pillarId": "pillar/news",
        "pillarName": "News"
      },
      {
        "id": "sport/blog/2023/sep/08/alex-mitchell-england-argentina-rugby-world-cup-analyis",
        "type": "article",
        "sectionId": "sport",
        "sectionName": "Sport",
        "webPublicationDate": "2023-09-08T14:00:40Z",
        "webTitle": "Alex Mitchell is a vibrant, running No 9 who can make England more adventurous | Ugo Monye",
        "webUrl": "https://www.theguardian.com/sport/blog/2023/sep/08/alex-mitchell-england-argentina-rugby-world-cup-analyis",
        "apiUrl": "https://content.guardianapis.com/sport/blog/2023/sep/08/alex-mitchell-england-argentina-rugby-world-cup-analyis",
        "isHosted": false,
        "pillarId": "pillar/sport",
        "pillarName": "Sport"
      },
      {
        "id": "food/2023/sep/08/daim-almond-cake-recipe-benjamina-ebuehi",
        "type": "article",
        "sectionId": "food",
        "sectionName": "Food",
        "webPublicationDate": "2023-09-08T14:00:40Z",
        "webTitle": "Benjamina Ebuehi’s recipe for Daim almond cake | The sweet spot",
        "webUrl": "https://www.theguardian.com/food/2023/sep/08/daim-almond-cake-recipe-benjamina-ebuehi",
        "apiUrl": "https://content.guardianapis.com/food/2023/sep/08/daim-almond-cake-recipe-benjamina-ebuehi",
        "isHosted": false,
        "pillarId": "pillar/lifestyle",
        "pillarName": "Lifestyle"
      },
      {
        "id": "football/2023/sep/08/injury-hit-chelsea-wait-on-scans-to-assess-romeo-lavias-ankle-issue",
        "type": "article",
        "sectionId": "football",
        "sectionName": "Football",
        "webPublicationDate": "2023-09-08T13:47:24Z",
        "webTitle": "Injury-hit Chelsea wait on scans to assess Roméo Lavia’s ankle issue",
        "webUrl": "https://www.theguardian.com/football/2023/sep/08/injury-hit-chelsea-wait-on-scans-to-assess-romeo-lavias-ankle-issue",
        "apiUrl": "https://content.guardianapis.com/football/2023/sep/08/injury-hit-chelsea-wait-on-scans-to-assess-romeo-lavias-ankle-issue",
        "isHosted": false,
        "pillarId": "pillar/sport",
        "pillarName": "Sport"
      },
      {
        "id": "world/2023/sep/08/more-than-150-rescuers-join-effort-to-free-ill-american-caver-mark-dickey-turkey",
        "type": "article",
        "sectionId": "world",
        "sectionName": "World news",
        "webPublicationDate": "2023-09-08T13:39:49Z",
        "webTitle": "More than 150 rescuers join effort to free ill American from Turkish cave",
        "webUrl": "https://www.theguardian.com/world/2023/sep/08/more-than-150-rescuers-join-effort-to-free-ill-american-caver-mark-dickey-turkey",
        "apiUrl": "https://content.guardianapis.com/world/2023/sep/08/more-than-150-rescuers-join-effort-to-free-ill-american-caver-mark-dickey-turkey",
        "isHosted": false,
        "pillarId": "pillar/news",
        "pillarName": "News"
      }
    ]
  }
}