{
  "response": {
    "status": "ok",
    "userTier": "developer",
    "total": 2449750,
    "startIndex": 71,
    "pageSize": 10,
    "currentPage": 8,
    "pages": 244975,
    "orderBy": "newest",
    "static_path": "",
    "source": "The Guardian",
    "source_url": "https://www.theguardian.com",
    "results": [
      {
        "id": "world/2023/sep/08/mali-jihadists-kill-at-least-64-people-amid-growing-islamist-threat",
        "type": "article",
        "sectionId": "world",
        "sectionName": "World news",
        "webPublicationDate": "2023-09-08T08:55:27Z",
        "webTitle": "Mali jihadists kill dozens in twin attacks amid growing Islamist threat",
        "webUrl": "https://www.theguardian.com/world/2023/sep/08/mali-jihadists-kill-at-least-64-people-amid-growing-islamist-threat",
        "apiUrl": "https://content.guardianapis.com/world/2023/sep/08/mali-jihadists-kill-at-least-64-people-amid-growing-islamist-threat",
        "isHosted": false,
        "pillarId": "pillar/news",
        "pillarName": "News"
      },
      {
        "id": "uk-news/2023/sep/08/met-police-searching-for-escaped-terror-suspect-in-richmond-park",
        "type": "article",
        "sectionId": "uk-news",
        "sectionName": "UK news",
        "webPublicationDate": "2023-09-08T08:45:01Z",
        "webTitle": "Terrorism suspect may have had help to escape prison, says Met chief",
        "webUrl": "https://www.theguardian.com/uk-news/2023/sep/08/met-police-searching-for-escaped-terror-suspect-in-richmond-park",
        "apiUrl": "https://content.guardianapis.com/uk-news/2023/sep/08/met-police-searching-for-escaped-terror-suspect-in-richmond-park",
        "isHosted": false,
        "pillarId": "pillar/news",
        "pillarName": "News"
      },
      {
        "id": "sport/2023/sep/08/sports-quiz-week-rugby-world-cup-ryder-football-golf-tennis-athletics-nfl",
        "type": "article",
        "sectionId": "sport",
        "sectionName": "Sport",
        "webPublicationDate": "2023-09-08T08:41:49Z",
        "webTitle": "Sports quiz of the week: Rugby World Cup, Ryder Cup and Evan Ferguson",
        "webUrl": "https://www.theguardian.com/sport/2023/sep/08/sports-quiz-week-rugby-world-cup-ryder-football-golf-tennis-athletics-nfl",
        "apiUrl": "https://content.guardianapis.com/sport/2023/sep/08/sports-quiz-week-rugby-world-cup-ryder-football-golf-tennis-athletics-nfl",
        "isHosted": false,
        "pillarId": "pillar/sport",
        "pillarName": "Sport"
      },
      {
        "id": "australia-news/live/2023/sep/08/australia-news-live-anthony-albanese-manila-philippines-china-xi-indigenous-voice-to-parliament-politics-cost-of-living",
        "type": "liveblog",
        "sectionId": "australia-news",
        "sectionName": "Australia news",
        "webPublicationDate": "2023-09-08T08:06:20Z",
        "webTitle": "Marise Payne to quit parliament – as it happened",
        "webUrl": "https://www.theguardian.com/australia-news/live/2023/sep/08/australia-news-live-anthony-albanese-manila-philippines-china-xi-indigenous-voice-to-parliament-politics-cost-of-living",
        "apiUrl": "https://content.guardianapis.com/australia-news/live/2023/sep/08/australia-news-live-anthony-albanese-manila-philippines-china-xi-indigenous-voice-to-parliament-politics-cost-of-living",
        "isHosted": false,
        "pillarId": "pillar/news",
        "pillarName": "News"
      },
      {
        "id": "music/2023/sep/08/emma-rawicz-chroma-review",
        "type": "article",
        "sectionId": "music",
        "sectionName": "Music",
        "webPublicationDate": "2023-09-08T08:00:50Z",
        "webTitle": "Emma Rawicz: Chroma review | John Fordham’s Jazz album of the month",
        "webUrl": "https://www.theguardian.com/music/2023/sep/08/emma-rawicz-chroma-review",
        "apiUrl": "https://content.guardianapis.com/music/2023/sep/08/emma-rawicz-chroma-review",
        "isHosted": false,
        "pillarId": "pillar/arts",
        "pillarName": "Arts"
      },
      {
        "id": "tv-and-radio/2023/sep/08/el-conde-to-captain-phillips-the-seven-best-films-to-watch-on-tv-this-week",
        "type": "article",
        "sectionId": "tv-and-radio",
        "sectionName": "Television & radio",
        "webPublicationDate": "2023-09-08T08:00:50Z",
        "webTitle": "El Conde to Captain Phillips: the seven best films to watch on TV this week",
        "webUrl": "https://www.theguardian.com/tv-and-radio/2023/sep/08/el-conde-to-captain-phillips-the-seven-best-films-to-watch-on-tv-this-week",
        "apiUrl": "https://content.guardianapis.com/tv-and-radio/2023/sep/08/el-conde-to-captain-phillips-the-seven-best-films-to-watch-on-tv-this-week",
        "isHosted": false,
        "pillarId": "pillar/arts",
        "pillarName": "Arts"
      },
      {
        "id": "sport/2023/sep/08/ben-shelton-us-open-phone-celebration-novak-djokovic",
        "type": "article",
        "sectionId": "sport",
        "sectionName": "Sport",
        "webPublicationDate": "2023-09-08T08:00:50Z",
        "webTitle": "Ben Shelton: US Open’s viral problem child takes call for mission impossible",
        "webUrl": "https://www.theguardian.com/sport/2023/sep/08/ben-shelton-us-open-phone-celebration-novak-djokovic",
        "apiUrl": "https://content.guardianapis.com/sport/2023/sep/08/ben-shelton-us-open-phone-celebration-novak-djokovic",
        "isHosted": false,
        "pillarId": "pillar/sport",
        "pillarName": "Sport"
      },
      {
        "id": "football/2023/sep/08/copa-71-when-112500-fans-packed-out-the-unofficial-womens-world-cup-final",
        "type": "article",
        "sectionId": "football",
        "sectionName": "Football",
        "webPublicationDate": "2023-09-08T08:00:50Z",
        "webTitle": "Copa 71: when 112,500 fans packed out the unofficial Women’s World Cup final",
        "webUrl": "https://www.theguardian.com/football/2023/sep/08/copa-71-when-112500-fans-packed-out-the-unofficial-womens-world-cup-final",
        "apiUrl": "https://content.guardianapis.com/football/2023/sep/08/copa-71-when-112500-fans-packed-out-the-unofficial-womens-world-cup-final",
        "isHosted": false,
        "pillarId": "pillar/sport",
        "pillarName": "Sport"
      },
      {
        "id": "culture/2023/sep/08/victorian-dewsbury-greenest-town-in-england",
        "type": "article",
        "sectionId": "culture",
        "sectionName": "Culture",
        "webPublicationDate": "2023-09-08T07:30:59Z",
        "webTitle": "Dewsbury in Yorkshire recognised as ‘greenest town’ of the 1800s",
        "webUrl": "https://www.theguardian.com/culture/2023/sep/08/victorian-dewsbury-greenest-town-in-england",
        "apiUrl": "https://content.guardianapis.com/culture/2023/sep/08/victorian-dewsbury-greenest-town-in-england",
        "isHosted": false,
        "pillarId": "pillar/arts",
        "pillarName": "Arts"
      },
      {
        "id": "fashion/2023/sep/08/new-york-fashion-week-public-library-jennifer-lopez-lil-nas-x",
        "type": "article",
        "sectionId": "fashion",
        "sectionName": "Fashion",
        "webPublicationDate": "2023-09-08T07:06:06Z",
        "webTitle": "New York fashion week kicks off at city’s public library",
        "webUrl": "https://www.theguardian.com/fashion/2023/sep/08/new-york-fashion-week-public-library-jennifer-lopez-lil-nas-x",
        "apiUrl": "https://content.guardianapis.com/fashion/2023/sep/08/new-york-fashion-week-public-library-jennifer-lopez-lil-nas-x",
        "isHosted": false,
        "pillarId": "pillar/lifestyle",
        "pillarName": "Lifestyle"
      }
    ]
  }
}