{
  "response": {
    "status": "ok",
    "userTier": "developer",
    "total": 2449750,
    "startIndex": 11,
    "pageSize": 10,
    "currentPage": 2,
    "pages": 244975,
    "orderBy": "newest",
    "static_path": "",
    "source": "The Guardian",
    "source_url": "https://www.theguardian.com",
    "results": [
      {
        "id": "us-news/2023/sep/08/ohio-flamingos-hurricane-idalia",
        "type": "article",
        "sectionId": "us-news",
        "sectionName": "US news",
        "webPublicationDate": "2023-09-08T13:36:33Z",
        "webTitle": "Flamingos spotted as far north as Ohio after being blown off course by Idalia",
        "webUrl": "https://www.theguardian.com/us-news/2023/sep/08/ohio-flamingos-hurricane-idalia",
        "apiUrl": "https://content.guardianapis.com/us-news/2023/sep/08/ohio-flamingos-hurricane-idalia",
        "isHosted": false,
        "pillarId": "pillar/news",
        "pillarName": "News"
      },
      {
        "id": "football/2023/sep/08/zambian-youth-coach-investigated-for-sexual-abuse-now-working-for-club-side",
        "type": "article",
        "sectionId": "football",
        "sectionName": "Football",
        "webPublicationDate": "2023-09-08T13:31:36Z",
        "webTitle": "Zambian youth coach investigated for sexual abuse now working for club side ",
        "webUrl": "https://www.theguardian.com/football/2023/sep/08/zambian-youth-coach-investigated-for-sexual-abuse-now-working-for-club-side",
        "apiUrl": "https://content.guardianapis.com/football/2023/sep/08/zambian-youth-coach-investigated-for-sexual-abuse-now-working-for-club-side",
        "isHosted": false,
        "pillarId": "pillar/sport",
        "pillarName": "Sport"
      },
      {
        "id": "lifeandstyle/2023/sep/08/my-friend-is-working-so-hard-its-affecting-her-health-and-family-how-can-i-help",
        "type": "article",
        "sectionId": "lifeandstyle",
        "sectionName": "Life and style",
        "webPublicationDate": "2023-09-08T13:30:39Z",
        "webTitle": "My friend is working so hard it’s affecting her health and family. How can I help? | Ask Annalisa Barbieri ",
        "webUrl": "https://www.theguardian.com/lifeandstyle/2023/sep/08/my-friend-is-working-so-hard-its-affecting-her-health-and-family-how-can-i-help",
        "apiUrl": "https://content.guardianapis.com/lifeandstyle/2023/sep/08/my-friend-is-working-so-hard-its-affecting-her-health-and-family-how-can-i-help",
        "isHosted": false,
        "pillarId": "pillar/lifestyle",
        "pillarName": "Lifestyle"
      },
      {
        "id": "commentisfree/2023/sep/08/elon-musk-satellite-war-starlink-system-ukraine",
        "type": "article",
        "sectionId": "commentisfree",
        "sectionName": "Opinion",
        "webPublicationDate": "2023-09-08T13:21:21Z",
        "webTitle": "And then Elon Musk said there’ll be no more war – not via his satellite. Aren’t we lucky to have the world in his hands? | Marina Hyde",
        "webUrl": "https://www.theguardian.com/commentisfree/2023/sep/08/elon-musk-satellite-war-starlink-system-ukraine",
        "apiUrl": "https://content.guardianapis.com/commentisfree/2023/sep/08/elon-musk-satellite-war-starlink-system-ukraine",
        "isHosted": false,
        "pillarId": "pillar/opinion",
        "pillarName": "Opinion"
      },
      {
        "id": "world/2023/sep/08/nhs-to-begin-autumn-covid-jabs-next-week-as-new-variant-spreads",
        "type": "article",
        "sectionId": "world",
        "sectionName": "World news",
        "webPublicationDate": "2023-09-08T13:14:18Z",
        "webTitle": "NHS to begin autumn Covid jabs next week as new variant spreads",
        "webUrl": "https://www.theguardian.com/world/2023/sep/08/nhs-to-begin-autumn-covid-jabs-next-week-as-new-variant-spreads",
        "apiUrl": "https://content.guardianapis.com/world/2023/sep/08/nhs-to-begin-autumn-covid-jabs-next-week-as-new-variant-spreads",
        "isHosted": false,
        "pillarId": "pillar/news",
        "pillarName": "News"
      },
      {
        "id": "film/2023/sep/08/north-star-review-kristin-scott-thomas-ho-hum-directorial-debut",
        "type": "article",
        "sectionId": "film",
        "sectionName": "Film",
        "webPublicationDate": "2023-09-08T13:10:29Z",
        "webTitle": "North Star review – Kristin Scott Thomas makes a ho-hum directorial debut",
        "webUrl": "https://www.theguardian.com/film/2023/sep/08/north-star-review-kristin-scott-thomas-ho-hum-directorial-debut",
        "apiUrl": "https://content.guardianapis.com/film/2023/sep/08/north-star-review-kristin-scott-thomas-ho-hum-directorial-debut",
        "isHosted": false,
        "pillarId": "pillar/arts",
        "pillarName": "Arts"
      },
      {
        "id": "crosswords/2023/sep/08/annotated-solutions-for-prize-29165",
        "type": "article",
        "sectionId": "crosswords",
        "sectionName": "Crosswords",
        "webPublicationDate": "2023-09-08T13:04:43Z",
        "webTitle": "Annotated solutions for Prize 29,165",
        "webUrl": "https://www.theguardian.com/crosswords/2023/sep/08/annotated-solutions-for-prize-29165",
        "apiUrl": "https://content.guardianapis.com/crosswords/2023/sep/08/annotated-solutions-for-prize-29165",
        "isHosted": false,
        "pillarId": "pillar/lifestyle",
        "pillarName": "Lifestyle"
      },
      {
        "id": "food/2023/sep/08/scandinavian-spirits-fiona-beckett",
        "type": "article",
        "sectionId": "food",
        "sectionName": "Food",
        "webPublicationDate": "2023-09-08T13:00:39Z",
        "webTitle": "Snaps decision: the best Nordic sharpeners ",
        "webUrl": "https://www.theguardian.com/food/2023/sep/08/scandinavian-spirits-fiona-beckett",
        "apiUrl": "https://content.guardianapis.com/food/2023/sep/08/scandinavian-spirits-fiona-beckett",
        "isHosted": false,
        "pillarId": "pillar/lifestyle",
        "pillarName": "Lifestyle"
      },
      {
        "id": "fashion/2023/sep/08/want-your-outfit-to-be-noticed-try-pairing-it-with-the-wrong-shoe",
        "type": "article",
        "sectionId": "fashion",
        "sectionName": "Fashion",
        "webPublicationDate": "2023-09-08T13:00:38Z",
        "webTitle": "Want your outfit to look just right? Try pairing it with the Wrong Shoe | Jess-Cartner-Morley on fashion",
        "webUrl": "https://www.theguardian.com/fashion/2023/sep/08/want-your-outfit-to-be-noticed-try-pairing-it-with-the-wrong-shoe",
        "apiUrl": "https://content.guardianapis.com/fashion/2023/sep/08/want-your-outfit-to-be-noticed-try-pairing-it-with-the-wrong-shoe",
        "isHosted": false,
        "pillarId": "pillar/lifestyle",
        "pillarName": "Lifestyle"
      },
      {
        "id": "technology/2023/sep/08/elon-musk-committed-evil-starlink-order-ukraine",
        "type": "article",
        "sectionId": "technology",
        "sectionName": "Technology",
        "webPublicationDate": "2023-09-08T12:59:21Z",
        "webTitle": "Elon Musk ‘committed evil’ with Starlink order, says Ukrainian official",
        "webUrl": "https://www.theguardian.com/technology/2023/sep/08/elon-musk-committed-evil-starlink-order-ukraine",
        "apiUrl": "https://content.guardianapis.com/technology/2023/sep/08/elon-musk-committed-evil-starlink-order-ukraine",
        "isHosted": false,
        "pillarId": "pillar/news",
        "pillarName": "News"
      }
    ]
  }
}