{
  "response": {
    "status": "ok",
    "userTier": "developer",
    "total": 2449750,
    "startIndex": 51,
    "pageSize": 10,
    "currentPage": 6,
    "pages": 244975,
    "orderBy": "newest",
    "static_path": "",
    "source": "The Guardian",
    "source_url": "https://www.theguardian.com",
    "results": [
      {
        "id": "books/2023/sep/08/the-best-recent-science-fiction-fantasy-and-horror-reviews-roundup",
        "type": "article",
        "sectionId": "books",
        "sectionName": "Books",
        "webPublicationDate": "2023-09-08T11:00:36Z",
        "webTitle": "The best recent science fiction, fantasy and horror – reviews roundup",
        "webUrl": "https://www.theguardian.com/books/2023/sep/08/the-best-recent-science-fiction-fantasy-and-horror-reviews-roundup",
        "apiUrl": "https://content.guardianapis.com/books/2023/sep/08/the-best-recent-science-fiction-fantasy-and-horror-reviews-roundup",
        "isHosted": false,
        "pillarId": "pillar/arts",
        "pillarName": "Arts"
      },
      {
        "id": "food/2023/sep/08/blabar-london-restaurant-review-grace-dent",
        "type": "article",
        "sectionId": "food",
        "sectionName": "Food",
        "webPublicationDate": "2023-09-08T11:00:36Z",
        "webTitle": "Blåbär, London SW15: ‘Damn these Nordic types with their delightful, dignified living’ – restaurant review",
        "webUrl": "https://www.theguardian.com/food/2023/sep/08/blabar-london-restaurant-review-grace-dent",
        "apiUrl": "https://content.guardianapis.com/food/2023/sep/08/blabar-london-restaurant-review-grace-dent",
        "isHosted": false,
        "pillarId": "pillar/lifestyle",
        "pillarName": "Lifestyle"
      },
      {
        "id": "uk-news/2023/sep/08/boy-dies-after-electric-shock-at-blackpool-hotel",
        "type": "article",
        "sectionId": "uk-news",
        "sectionName": "UK news",
        "webPublicationDate": "2023-09-08T10:53:34Z",
        "webTitle": "Boy dies after electric shock at Blackpool hotel",
        "webUrl": "https://www.theguardian.com/uk-news/2023/sep/08/boy-dies-after-electric-shock-at-blackpool-hotel",
        "apiUrl": "https://content.guardianapis.com/uk-news/2023/sep/08/boy-dies-after-electric-shock-at-blackpool-hotel",
        "isHosted": false,
        "pillarId": "pillar/news",
        "pillarName": "News"
      },
      {
        "id": "sport/2023/sep/08/rugby-world-cup-fans-face-fines-too-noisy-in-marseille",
        "type": "article",
        "sectionId": "sport",
        "sectionName": "Sport",
        "webPublicationDate": "2023-09-08T10:42:19Z",
        "webTitle": "Shhhh! Rugby World Cup fans face fines if they are too noisy in Marseille",
        "webUrl": "https://www.theguardian.com/sport/2023/sep/08/rugby-world-cup-fans-face-fines-too-noisy-in-marseille",
        "apiUrl": "https://content.guardianapis.com/sport/2023/sep/08/rugby-world-cup-fans-face-fines-too-noisy-in-marseille",
        "isHosted": false,
        "pillarId": "pillar/sport",
        "pillarName": "Sport"
      },
      {
        "id": "australia-news/2023/sep/08/ryans-rule-the-australian-right-to-a-second-medical-opinion-that-may-soon-be-saving-lives-in-the-uk",
        "type": "article",
        "sectionId": "australia-news",
        "sectionName": "Australia news",
        "webPublicationDate": "2023-09-08T10:24:04Z",
        "webTitle": "Ryan’s rule: the Australian right to a second medical opinion that may soon be saving lives in the UK",
        "webUrl": "https://www.theguardian.com/australia-news/2023/sep/08/ryans-rule-the-australian-right-to-a-second-medical-opinion-that-may-soon-be-saving-lives-in-the-uk",
        "apiUrl": "https://content.guardianapis.com/australia-news/2023/sep/08/ryans-rule-the-australian-right-to-a-second-medical-opinion-that-may-soon-be-saving-lives-in-the-uk",
        "isHosted": false,
        "pillarId": "pillar/news",
        "pillarName": "News"
      },
      {
        "id": "stage/2023/sep/08/dracula-minas-reckoning-review-his-majestys-theatre-aberdeen",
        "type": "article",
        "sectionId": "stage",
        "sectionName": "Stage",
        "webPublicationDate": "2023-09-08T10:21:39Z",
        "webTitle": "Dracula: Mina’s Reckoning review – compelling feminist spin unsettles from the shadows",
        "webUrl": "https://www.theguardian.com/stage/2023/sep/08/dracula-minas-reckoning-review-his-majestys-theatre-aberdeen",
        "apiUrl": "https://content.guardianapis.com/stage/2023/sep/08/dracula-minas-reckoning-review-his-majestys-theatre-aberdeen",
        "isHosted": false,
        "pillarId": "pillar/arts",
        "pillarName": "Arts"
      },
      {
        "id": "environment/2023/sep/08/shell-signals-retreat-from-carbon-offsetting",
        "type": "article",
        "sectionId": "environment",
        "sectionName": "Environment",
        "webPublicationDate": "2023-09-08T10:12:27Z",
        "webTitle": "Shell signals retreat from carbon offsetting",
        "webUrl": "https://www.theguardian.com/environment/2023/sep/08/shell-signals-retreat-from-carbon-offsetting",
        "apiUrl": "https://content.guardianapis.com/environment/2023/sep/08/shell-signals-retreat-from-carbon-offsetting",
        "isHosted": false,
        "pillarId": "pillar/news",
        "pillarName": "News"
      },
      {
        "id": "commentisfree/2023/sep/08/biden-india-modi-g20-autocrat",
        "type": "article",
        "sectionId": "commentisfree",
        "sectionName": "Opinion",
        "webPublicationDate": "2023-09-08T10:05:35Z",
        "webTitle": "The US should not normalize Modi’s autocratic and illiberal India at the G20 | Jason Stanley",
        "webUrl": "https://www.theguardian.com/commentisfree/2023/sep/08/biden-india-modi-g20-autocrat",
        "apiUrl": "https://content.guardianapis.com/commentisfree/2023/sep/08/biden-india-modi-g20-autocrat",
        "isHosted": false,
        "pillarId": "pillar/opinion",
        "pillarName": "Opinion"
      },
      {
        "id": "lifeandstyle/2023/sep/08/how-to-win-an-argument-without-making-things-worse-from-the-people-who-do-it-for-a-living",
        "type": "article",
        "sectionId": "lifeandstyle",
        "sectionName": "Life and style",
        "webPublicationDate": "2023-09-08T10:00:36Z",
        "webTitle": "Don’t steamroll, and go easy on the stats: how to win an argument – without making things worse",
        "webUrl": "https://www.theguardian.com/lifeandstyle/2023/sep/08/how-to-win-an-argument-without-making-things-worse-from-the-people-who-do-it-for-a-living",
        "apiUrl": "https://content.guardianapis.com/lifeandstyle/2023/sep/08/how-to-win-an-argument-without-making-things-worse-from-the-people-who-do-it-for-a-living",
        "isHosted": false,
        "pillarId": "pillar/lifestyle",
        "pillarName": "Lifestyle"
      },
      {
        "id": "film/2023/sep/08/jawan-review-shah-rukh-khan",
        "type": "article",
        "sectionId": "film",
        "sectionName": "Film",
        "webPublicationDate": "2023-09-08T10:00:36Z",
        "webTitle": "Jawan review – Shah Rukh Khan vehicle goes like a runaway train",
        "webUrl": "https://www.theguardian.com/film/2023/sep/08/jawan-review-shah-rukh-khan",
        "apiUrl": "https://content.guardianapis.com/film/2023/sep/08/jawan-review-shah-rukh-khan",
        "isHosted": false,
        "pillarId": "pillar/arts",
        "pillarName": "Arts"
      }
    ]
  }
}