{
  "response": {
    "status": "ok",
    "userTier": "developer",
    "total": 2449750,
    "startIndex": 81,
    "pageSize": 10,
    "currentPage": 9,
    "pages": 244975,
    "orderBy": "newest",
    "static_path": "",
    "source": "The Guardian",
    "source_url": "https://www.theguardian.com",
    "results": [
      {
        "id": "sport/2023/sep/08/rugby-world-cup-kick-off-paris-gears-up-for-olympic-dress-rehearsal",
        "type": "article",
        "sectionId": "sport",
        "sectionName": "Sport",
        "webPublicationDate": "2023-09-08T07:00:50Z",
        "webTitle": "Rugby World Cup kick-off: Paris gears up for Olympic dress rehearsal",
        "webUrl": "https://www.theguardian.com/sport/2023/sep/08/rugby-world-cup-kick-off-paris-gears-up-for-olympic-dress-rehearsal",
        "apiUrl": "https://content.guardianapis.com/sport/2023/sep/08/rugby-world-cup-kick-off-paris-gears-up-for-olympic-dress-rehearsal",
        "isHosted": false,
        "pillarId": "pillar/sport",
        "pillarName": "Sport"
      },
      {
        "id": "music/2023/sep/08/the-coral-sea-of-mirrors-review-their-best-album-since-their-debut",
        "type": "article",
        "sectionId": "music",
        "sectionName": "Music",
        "webPublicationDate": "2023-09-08T07:00:49Z",
        "webTitle": "The Coral: Sea of Mirrors review – their best album since their debut",
        "webUrl": "https://www.theguardian.com/music/2023/sep/08/the-coral-sea-of-mirrors-review-their-best-album-since-their-debut",
        "apiUrl": "https://content.guardianapis.com/music/2023/sep/08/the-coral-sea-of-mirrors-review-their-best-album-since-their-debut",
        "isHosted": false,
        "pillarId": "pillar/arts",
        "pillarName": "Arts"
      },
      {
        "id": "sport/2023/sep/08/rugby-world-cup-france-new-zealand",
        "type": "article",
        "sectionId": "sport",
        "sectionName": "Sport",
        "webPublicationDate": "2023-09-08T07:00:49Z",
        "webTitle": "France await All Blacks test as Rugby World Cup fever reaches boiling point",
        "webUrl": "https://www.theguardian.com/sport/2023/sep/08/rugby-world-cup-france-new-zealand",
        "apiUrl": "https://content.guardianapis.com/sport/2023/sep/08/rugby-world-cup-france-new-zealand",
        "isHosted": false,
        "pillarId": "pillar/sport",
        "pillarName": "Sport"
      },
      {
        "id": "culture/2023/sep/08/michael-frayn-at-90",
        "type": "article",
        "sectionId": "culture",
        "sectionName": "Culture",
        "webPublicationDate": "2023-09-08T07:00:49Z",
        "webTitle": "Michael Frayn at 90: a miscellany of the satirical columnist’s finest moments",
        "webUrl": "https://www.theguardian.com/culture/2023/sep/08/michael-frayn-at-90",
        "apiUrl": "https://content.guardianapis.com/culture/2023/sep/08/michael-frayn-at-90",
        "isHosted": false,
        "pillarId": "pillar/arts",
        "pillarName": "Arts"
      },
      {
        "id": "lifeandstyle/2023/sep/08/you-be-the-judge-should-my-brother-stick-to-his-promises-to-lend-me-money",
        "type": "article",
        "sectionId": "lifeandstyle",
        "sectionName": "Life and style",
        "webPublicationDate": "2023-09-08T07:00:49Z",
        "webTitle": "You be the judge: should my brother stick to his promises to lend me money?",
        "webUrl": "https://www.theguardian.com/lifeandstyle/2023/sep/08/you-be-the-judge-should-my-brother-stick-to-his-promises-to-lend-me-money",
        "apiUrl": "https://content.guardianapis.com/lifeandstyle/2023/sep/08/you-be-the-judge-should-my-brother-stick-to-his-promises-to-lend-me-money",
        "isHosted": false,
        "pillarId": "pillar/lifestyle",
        "pillarName": "Lifestyle"
      },
      {
        "id": "sport/2023/sep/08/chess-carlsen-increases-lead-while-niemann-is-involved-in-new-controversy",
        "type": "article",
        "sectionId": "sport",
        "sectionName": "Sport",
        "webPublicationDate": "2023-09-08T07:00:48Z",
        "webTitle": "Chess: Carlsen increases lead while Niemann is involved in new controversy",
        "webUrl": "https://www.theguardian.com/sport/2023/sep/08/chess-carlsen-increases-lead-while-niemann-is-involved-in-new-controversy",
        "apiUrl": "https://content.guardianapis.com/sport/2023/sep/08/chess-carlsen-increases-lead-while-niemann-is-involved-in-new-controversy",
        "isHosted": false,
        "pillarId": "pillar/sport",
        "pillarName": "Sport"
      },
      {
        "id": "environment/gallery/2023/sep/08/the-week-in-wildlife-in-pictures",
        "type": "gallery",
        "sectionId": "environment",
        "sectionName": "Environment",
        "webPublicationDate": "2023-09-08T07:00:48Z",
        "webTitle": "The week in wildlife – in pictures",
        "webUrl": "https://www.theguardian.com/environment/gallery/2023/sep/08/the-week-in-wildlife-in-pictures",
        "apiUrl": "https://content.guardianapis.com/environment/gallery/2023/sep/08/the-week-in-wildlife-in-pictures",
        "isHosted": false,
        "pillarId": "pillar/news",
        "pillarName": "News"
      },
      {
        "id": "film/2023/sep/08/many-unhappy-returns-why-asian-immigrant-cinema-is-challenging-the-meaning-of-home",
        "type": "article",
        "sectionId": "film",
        "sectionName": "Film",
        "webPublicationDate": "2023-09-08T06:52:08Z",
        "webTitle": "Many unhappy returns: why Asian immigrant cinema is challenging the meaning of home",
        "webUrl": "https://www.theguardian.com/film/2023/sep/08/many-unhappy-returns-why-asian-immigrant-cinema-is-challenging-the-meaning-of-home",
        "apiUrl": "https://content.guardianapis.com/film/2023/sep/08/many-unhappy-returns-why-asian-immigrant-cinema-is-challenging-the-meaning-of-home",
        "isHosted": false,
        "pillarId": "pillar/arts",
        "pillarName": "Arts"
      },
      {
        "id": "australia-news/2023/sep/08/afternoon-update-hong-kongs-heaviest-rain-in-139-years-faulty-seatbelt-cameras-in-queensland-and-climate-activists-halt-us-open",
        "type": "article",
        "sectionId": "australia-news",
        "sectionName": "Australia news",
        "webPublicationDate": "2023-09-08T06:43:07Z",
        "webTitle": "Afternoon Update: Hong Kong’s heaviest rain in 139 years; faulty seatbelt cameras in Queensland; and climate activists halt US Open",
        "webUrl": "https://www.theguardian.com/australia-news/2023/sep/08/afternoon-update-hong-kongs-heaviest-rain-in-139-years-faulty-seatbelt-cameras-in-queensland-and-climate-activists-halt-us-open",
        "apiUrl": "https://content.guardianapis.com/australia-news/2023/sep/08/afternoon-update-hong-kongs-heaviest-rain-in-139-years-faulty-seatbelt-cameras-in-queensland-and-climate-activists-halt-us-open",
        "isHosted": false,
        "pillarId": "pillar/news",
        "pillarName": "News"
      },
      {
        "id": "australia-news/2023/sep/08/anthony-albanese-china-trip-beijing-australia-china-relationship",
        "type": "article",
        "sectionId": "australia-news",
        "sectionName": "Australia news",
        "webPublicationDate": "2023-09-08T06:40:29Z",
        "webTitle": "Albanese’s China trip suggests a smoother relationship rather than a cosy one",
        "webUrl": "https://www.theguardian.com/australia-news/2023/sep/08/anthony-albanese-china-trip-beijing-australia-china-relationship",
        "apiUrl": "https://content.guardianapis.com/australia-news/2023/sep/08/anthony-albanese-china-trip-beijing-australia-china-relationship",
        "isHosted": false,
        "pillarId": "pillar/news",
        "pillarName": "News"
      }
    ]
  }
}