{
  "response": {
    "status": "ok",
    "userTier": "developer",
    "total": 2449750,
    "startIndex": 41,
    "pageSize": 10,
    "currentPage": 5,
    "pages": 244975,
    "orderBy": "newest",
    "static_path": "",
    "source": "The Guardian",
    "source_url": "https://www.theguardian.com",
    "results": [
      {
        "id": "politics/2023/sep/08/lord-haworth-obituary",
        "type": "article",
        "sectionId": "politics",
        "sectionName": "Politics",
        "webPublicationDate": "2023-09-08T11:17:40Z",
        "webTitle": "Lord Haworth obituary",
        "webUrl": "https://www.theguardian.com/politics/2023/sep/08/lord-haworth-obituary",
        "apiUrl": "https://content.guardianapis.com/politics/2023/sep/08/lord-haworth-obituary",
        "isHosted": false,
        "pillarId": "pillar/news",
        "pillarName": "News"
      },
      {
        "id": "uk-news/2023/sep/08/scottish-ramblers-up-in-arms-over-footpath-closed-for-five-years-radical-road-arthurs-seat",
        "type": "article",
        "sectionId": "uk-news",
        "sectionName": "UK news",
        "webPublicationDate": "2023-09-08T11:12:23Z",
        "webTitle": "Scottish walkers up in arms over Edinburgh footpath shut for five years",
        "webUrl": "https://www.theguardian.com/uk-news/2023/sep/08/scottish-ramblers-up-in-arms-over-footpath-closed-for-five-years-radical-road-arthurs-seat",
        "apiUrl": "https://content.guardianapis.com/uk-news/2023/sep/08/scottish-ramblers-up-in-arms-over-footpath-closed-for-five-years-radical-road-arthurs-seat",
        "isHosted": false,
        "pillarId": "pillar/news",
        "pillarName": "News"
      },
      {
        "id": "sport/2023/sep/08/reintroducing-the-culture-the-return-of-grassroots-rugby-union",
        "type": "article",
        "sectionId": "sport",
        "sectionName": "Sport",
        "webPublicationDate": "2023-09-08T11:10:09Z",
        "webTitle": "‘Reintroducing the culture’: the return of grassroots rugby union",
        "webUrl": "https://www.theguardian.com/sport/2023/sep/08/reintroducing-the-culture-the-return-of-grassroots-rugby-union",
        "apiUrl": "https://content.guardianapis.com/sport/2023/sep/08/reintroducing-the-culture-the-return-of-grassroots-rugby-union",
        "isHosted": false,
        "pillarId": "pillar/sport",
        "pillarName": "Sport"
      },
      {
        "id": "us-news/2023/sep/08/ron-desantis-campaign-struggles-hurricane-idalia-biden-snub",
        "type": "article",
        "sectionId": "us-news",
        "sectionName": "US news",
        "webPublicationDate": "2023-09-08T11:00:38Z",
        "webTitle": "DeSantis struggles to shake Hurricane Idalia’s dark clouds after snub to Biden",
        "webUrl": "https://www.theguardian.com/us-news/2023/sep/08/ron-desantis-campaign-struggles-hurricane-idalia-biden-snub",
        "apiUrl": "https://content.guardianapis.com/us-news/2023/sep/08/ron-desantis-campaign-struggles-hurricane-idalia-biden-snub",
        "isHosted": false,
        "pillarId": "pillar/news",
        "pillarName": "News"
      },
      {
        "id": "us-news/2023/sep/08/first-thing-a-deal-with-putin-wont-bring-peace-says-ukraine-ex-minister",
        "type": "article",
        "sectionId": "us-news",
        "sectionName": "US news",
        "webPublicationDate": "2023-09-08T11:00:37Z",
        "webTitle": "Ukraine’s ex-defence minister warns of Putin’s aims | First Thing",
        "webUrl": "https://www.theguardian.com/us-news/2023/sep/08/first-thing-a-deal-with-putin-wont-bring-peace-says-ukraine-ex-minister",
        "apiUrl": "https://content.guardianapis.com/us-news/2023/sep/08/first-thing-a-deal-with-putin-wont-bring-peace-says-ukraine-ex-minister",
        "isHosted": false,
        "pillarId": "pillar/news",
        "pillarName": "News"
      },
      {
        "id": "books/2023/sep/08/im-a-fan-by-sheena-patel-audiobook-review-existential-envy",
        "type": "article",
        "sectionId": "books",
        "sectionName": "Books",
        "webPublicationDate": "2023-09-08T11:00:37Z",
        "webTitle": "I’m a Fan by Sheena Patel audiobook review: existential envy",
        "webUrl": "https://www.theguardian.com/books/2023/sep/08/im-a-fan-by-sheena-patel-audiobook-review-existential-envy",
        "apiUrl": "https://content.guardianapis.com/books/2023/sep/08/im-a-fan-by-sheena-patel-audiobook-review-existential-envy",
        "isHosted": false,
        "pillarId": "pillar/arts",
        "pillarName": "Arts"
      },
      {
        "id": "commentisfree/2023/sep/08/benefits-cut-working-department-work-pensions",
        "type": "article",
        "sectionId": "commentisfree",
        "sectionName": "Opinion",
        "webPublicationDate": "2023-09-08T11:00:37Z",
        "webTitle": "I’ve had my benefits cut off for working one second a week too long. I don't know how I'll cope now | Liz",
        "webUrl": "https://www.theguardian.com/commentisfree/2023/sep/08/benefits-cut-working-department-work-pensions",
        "apiUrl": "https://content.guardianapis.com/commentisfree/2023/sep/08/benefits-cut-working-department-work-pensions",
        "isHosted": false,
        "pillarId": "pillar/opinion",
        "pillarName": "Opinion"
      },
      {
        "id": "games/2023/sep/08/playing-final-fantasy-xiv-motherhood-anxiety-online-community",
        "type": "article",
        "sectionId": "games",
        "sectionName": "Games",
        "webPublicationDate": "2023-09-08T11:00:37Z",
        "webTitle": "How a decade of playing Final Fantasy XIV has helped me through life and motherhood",
        "webUrl": "https://www.theguardian.com/games/2023/sep/08/playing-final-fantasy-xiv-motherhood-anxiety-online-community",
        "apiUrl": "https://content.guardianapis.com/games/2023/sep/08/playing-final-fantasy-xiv-motherhood-anxiety-online-community",
        "isHosted": false,
        "pillarId": "pillar/arts",
        "pillarName": "Arts"
      },
      {
        "id": "world/2023/sep/08/florida-supreme-court-abortion-case-six-weeks",
        "type": "article",
        "sectionId": "world",
        "sectionName": "World news",
        "webPublicationDate": "2023-09-08T11:00:37Z",
        "webTitle": "Florida supreme court to hear abortion case that could drastically limit access",
        "webUrl": "https://www.theguardian.com/world/2023/sep/08/florida-supreme-court-abortion-case-six-weeks",
        "apiUrl": "https://content.guardianapis.com/world/2023/sep/08/florida-supreme-court-abortion-case-six-weeks",
        "isHosted": false,
        "pillarId": "pillar/news",
        "pillarName": "News"
      },
      {
        "id": "us-news/2023/sep/08/tennessee-gun-laws-school-shooting-nashville-republican",
        "type": "article",
        "sectionId": "us-news",
        "sectionName": "US news",
        "webPublicationDate": "2023-09-08T11:00:36Z",
        "webTitle": "‘It seems like a game’: Tennessee gun reform push ends in whimper",
        "webUrl": "https://www.theguardian.com/us-news/2023/sep/08/tennessee-gun-laws-school-shooting-nashville-republican",
        "apiUrl": "https://content.guardianapis.com/us-news/2023/sep/08/tennessee-gun-laws-school-shooting-nashville-republican",
        "isHosted": false,
        "pillarId": "pillar/news",
        "pillarName": "News"
      }
    ]
  }
}