{
  "response": {
    "status": "ok",
    "userTier": "developer",
    "total": 2449750,
    "startIndex": 31,
    "pageSize": 10,
    "currentPage": 4,
    "pages": 244975,
    "orderBy": "newest",
    "static_path": "",
    "source": "The Guardian",
    "source_url": "https://www.theguardian.com",
    "results": [
      {
        "id": "me-my-family-and-cancer/2023/sep/08/cancer-made-me-grow-up-very-quickly-how-a-12-year-old-and-his-family-faced-a-serious-illness",
        "type": "article",
        "sectionId": "me-my-family-and-cancer",
        "sectionName": "Me, my family and cancer",
        "webPublicationDate": "2023-09-08T11:57:16Z",
        "webTitle": "‘Cancer made me grow up very quickly’: how a 12-year-old and his family faced a serious illness",
        "webUrl": "https://www.theguardian.com/me-my-family-and-cancer/2023/sep/08/cancer-made-me-grow-up-very-quickly-how-a-12-year-old-and-his-family-faced-a-serious-illness",
        "apiUrl": "https://content.guardianapis.com/me-my-family-and-cancer/2023/sep/08/cancer-made-me-grow-up-very-quickly-how-a-12-year-old-and-his-family-faced-a-serious-illness",
        "isHosted": false
      },
      {
        "id": "film/2023/sep/08/fantastic-four-marvel-and-dc-superhero-movie-malaise",
        "type": "article",
        "sectionId": "film",
        "sectionName": "Film",
        "webPublicationDate": "2023-09-08T11:49:35Z",
        "webTitle": "Can Fantastic Four save Marvel – and DC – from superhero movie malaise?",
        "webUrl": "https://www.theguardian.com/film/2023/sep/08/fantastic-four-marvel-and-dc-superhero-movie-malaise",
        "apiUrl": "https://content.guardianapis.com/film/2023/sep/08/fantastic-four-marvel-and-dc-superhero-movie-malaise",
        "isHosted": false,
        "pillarId": "pillar/arts",
        "pillarName": "Arts"
      },
      {
        "id": "australia-news/2023/sep/08/driver-arrested-after-several-pedestrians-hit-by-car-on-melbournes-bourke-street",
        "type": "article",
        "sectionId": "australia-news",
        "sectionName": "Australia news",
        "webPublicationDate": "2023-09-08T11:48:20Z",
        "webTitle": "Melbourne CBD crash: one person dead and several injured after car hits pedestrians on Bourke Street",
        "webUrl": "https://www.theguardian.com/australia-news/2023/sep/08/driver-arrested-after-several-pedestrians-hit-by-car-on-melbournes-bourke-street",
        "apiUrl": "https://content.guardianapis.com/australia-news/2023/sep/08/driver-arrested-after-several-pedestrians-hit-by-car-on-melbournes-bourke-street",
        "isHosted": false,
        "pillarId": "pillar/news",
        "pillarName": "News"
      },
      {
        "id": "commentisfree/2023/sep/08/year-queen-death-king-charles-royal-firm",
        "type": "article",
        "sectionId": "commentisfree",
        "sectionName": "Opinion",
        "webPublicationDate": "2023-09-08T11:38:27Z",
        "webTitle": "A year from the Queen’s death, Charles faces the same royal problems – and has few answers | Stephen Bates",
        "webUrl": "https://www.theguardian.com/commentisfree/2023/sep/08/year-queen-death-king-charles-royal-firm",
        "apiUrl": "https://content.guardianapis.com/commentisfree/2023/sep/08/year-queen-death-king-charles-royal-firm",
        "isHosted": false,
        "pillarId": "pillar/opinion",
        "pillarName": "Opinion"
      },
      {
        "id": "business/2023/sep/08/germany-backs-tariff-delay-on-electric-vehicle-sales-uk-and-eu-brexit",
        "type": "article",
        "sectionId": "business",
        "sectionName": "Business",
        "webPublicationDate": "2023-09-08T11:37:54Z",
        "webTitle": "Germany backs tariff delay on electric vehicle sales between UK and EU",
        "webUrl": "https://www.theguardian.com/business/2023/sep/08/germany-backs-tariff-delay-on-electric-vehicle-sales-uk-and-eu-brexit",
        "apiUrl": "https://content.guardianapis.com/business/2023/sep/08/germany-backs-tariff-delay-on-electric-vehicle-sales-uk-and-eu-brexit",
        "isHosted": false,
        "pillarId": "pillar/news",
        "pillarName": "News"
      },
      {
        "id": "world/2023/sep/08/pirola-latest-covid-variant-spreading-in-uk-health-data-suggests",
        "type": "article",
        "sectionId": "world",
        "sectionName": "World news",
        "webPublicationDate": "2023-09-08T11:33:04Z",
        "webTitle": "Latest Covid variant spreading in UK, health data suggests",
        "webUrl": "https://www.theguardian.com/world/2023/sep/08/pirola-latest-covid-variant-spreading-in-uk-health-data-suggests",
        "apiUrl": "https://content.guardianapis.com/world/2023/sep/08/pirola-latest-covid-variant-spreading-in-uk-health-data-suggests",
        "isHosted": false,
        "pillarId": "pillar/news",
        "pillarName": "News"
      },
      {
        "id": "fashion/2023/sep/07/fashion-statement-prettylittlething-naomi-campbell-fast-fashion",
        "type": "article",
        "sectionId": "fashion",
        "sectionName": "Fashion",
        "webPublicationDate": "2023-09-08T11:30:37Z",
        "webTitle": "Was Naomi Campbell’s PrettyLittleThing line a fast fashion paux pas?",
        "webUrl": "https://www.theguardian.com/fashion/2023/sep/07/fashion-statement-prettylittlething-naomi-campbell-fast-fashion",
        "apiUrl": "https://content.guardianapis.com/fashion/2023/sep/07/fashion-statement-prettylittlething-naomi-campbell-fast-fashion",
        "isHosted": false,
        "pillarId": "pillar/lifestyle",
        "pillarName": "Lifestyle"
      },
      {
        "id": "uk-news/2023/sep/08/digested-week-im-falling-apart-in-this-heat-someone-call-gillian-keegan",
        "type": "article",
        "sectionId": "uk-news",
        "sectionName": "UK news",
        "webPublicationDate": "2023-09-08T11:30:20Z",
        "webTitle": "Digested week: I’m falling apart in this heat. Someone call Gillian Keegan | Lucy Mangan  ",
        "webUrl": "https://www.theguardian.com/uk-news/2023/sep/08/digested-week-im-falling-apart-in-this-heat-someone-call-gillian-keegan",
        "apiUrl": "https://content.guardianapis.com/uk-news/2023/sep/08/digested-week-im-falling-apart-in-this-heat-someone-call-gillian-keegan",
        "isHosted": false,
        "pillarId": "pillar/news",
        "pillarName": "News"
      },
      {
        "id": "music/2023/sep/08/prom-69-pygmalion-pichon-review-fascinating-take-on-mozarts-requiem",
        "type": "article",
        "sectionId": "music",
        "sectionName": "Music",
        "webPublicationDate": "2023-09-08T11:30:07Z",
        "webTitle": "Prom 69: Pygmalion/Pichon review – fascinating and moving take on Mozart’s Requiem",
        "webUrl": "https://www.theguardian.com/music/2023/sep/08/prom-69-pygmalion-pichon-review-fascinating-take-on-mozarts-requiem",
        "apiUrl": "https://content.guardianapis.com/music/2023/sep/08/prom-69-pygmalion-pichon-review-fascinating-take-on-mozarts-requiem",
        "isHosted": false,
        "pillarId": "pillar/arts",
        "pillarName": "Arts"
      },
      {
        "id": "society/2023/sep/08/dwp-stops-womans-benefits-after-she-said-she-worked-one-second-over-limit",
        "type": "article",
        "sectionId": "society",
        "sectionName": "Society",
        "webPublicationDate": "2023-09-08T11:21:20Z",
        "webTitle": "DWP stops woman’s benefits after she said she worked one second over limit",
        "webUrl": "https://www.theguardian.com/society/2023/sep/08/dwp-stops-womans-benefits-after-she-said-she-worked-one-second-over-limit",
        "apiUrl": "https://content.guardianapis.com/society/2023/sep/08/dwp-stops-womans-benefits-after-she-said-she-worked-one-second-over-limit",
        "isHosted": false,
        "pillarId": "pillar/news",
        "pillarName": "News"
      }
    ]
  }
}